name="Anbennar: A Fantasy Total Conversion"
archive="mod/anbennar.zip"
replace_path="localisation/prov_names_I_english"
replace_path="localisation/prov_names_adj_I_english"
replace_path="common/countries"
replace_path="common/bookmarks"
replace_path="common/province_names"
replace_path="common/disasters"
replace_path="common/rebel_types"
replace_path="events"
replace_path="missions"
replace_path="decisions"
replace_path="history/diplomacy"
replace_path="history/wars"
replace_path="history/provinces"
tags={
	"Alternative History"
	"Fantasy"
	"Total Conversion"
	"Events"
	"Expansion"
	"Gameplay"
	"New Nations"
	"Map"
}
picture="Anbennar.png"
supported_version="1.28.*.*"
